{
	"albums": [		{
						"title": "Iyesus Selame",
						"icon": "http://ethiopiyawi.com/levi/img/songs/YosefBekele/YosefBekele2.jpg",
						"date": "April 2008",
						"songs": [
							{
								"title": "Abietu Endante Manew",
								"url": "http://ethiopiyawi.com/levi/img/songs/YosefBekele/IyesusSelame/AbietuEndanteManew.mp3"
							},
							{
								"title": "Baleweletayie Eyesus",
								"url": "http://ethiopiyawi.com/levi/img/songs/YosefBekele/IyesusSelame/BaleweletayieEyesus.mp3"
							},
							{
								"title": "Bante Des Yilegnal",
								"url": "http://ethiopiyawi.com/levi/img/songs/YosefBekele/IyesusSelame/BanteDesYilegnal.mp3"
							},
							{
								"title": "Bemaleda Mesgana",
								"url": "http://ethiopiyawi.com/levi/img/songs/YosefBekele/IyesusSelame/BemaledaMesgana.mp3"
							},
							{
								"title": "Bietekrestiyan",
								"url": "http://ethiopiyawi.com/levi/img/songs/YosefBekele/IyesusSelame/Bietekrestiyan.mp3"
							},
							{
								"title": "Gashayie New Ersu",
								"url": "http://ethiopiyawi.com/levi/img/songs/YosefBekele/IyesusSelame/GashayieNewErsu.mp3"
							},
							{
								"title": "Hallelujah",
								"url": "http://ethiopiyawi.com/levi/img/songs/YosefBekele/IyesusSelame/Hallelujah.mp3"
							},
							{
								"title": "Lamesgenew",
								"url": "http://ethiopiyawi.com/levi/img/songs/YosefBekele/IyesusSelame/Lamesgenew.mp3"
							},
							{
								"title": "Weletaw Bezabegn",
								"url": "http://ethiopiyawi.com/levi/img/songs/YosefBekele/IyesusSelame/WeletawBezabegn.mp3"
							},
							{
								"title": "Zariem Heyaw New",
								"url": "http://ethiopiyawi.com/levi/img/songs/YosefBekele/IyesusSelame/ZariemHeyawNew.mp3"
							}
						]

					}
					

				]
}